%YAML 1.1
%TAG !u! tag:unity3d.com,2011:
--- !u!21 &2100000
Material:
  serializedVersion: 6
  m_ObjectHideFlags: 0
  m_CorrespondingSourceObject: {fileID: 0}
  m_PrefabInstance: {fileID: 0}
  m_PrefabAsset: {fileID: 0}
  m_Name: TriPlanar
  m_Shader: {fileID: 4800000, guid: e88347c58329a6f40af1c6f1209376e8, type: 3}
  m_ShaderKeywords: 
  m_LightmapFlags: 4
  m_EnableInstancingVariants: 1
  m_DoubleSidedGI: 0
  m_CustomRenderQueue: -1
  stringTagMap: {}
  disabledShaderPasses: []
  m_SavedProperties:
    serializedVersion: 3
    m_TexEnvs:
    - _BumpMap:
        m_Texture: {fileID: 0}
        m_Scale: {x: 1, y: 1}
        m_Offset: {x: 0, y: 0}
    - _DetailAlbedoMap:
        m_Texture: {fileID: 0}
        m_Scale: {x: 1, y: 1}
        m_Offset: {x: 0, y: 0}
    - _DetailMask:
        m_Texture: {fileID: 0}
        m_Scale: {x: 1, y: 1}
        m_Offset: {x: 0, y: 0}
    - _DetailNormalMap:
        m_Texture: {fileID: 0}
        m_Scale: {x: 1, y: 1}
        m_Offset: {x: 0, y: 0}
    - _EmissionMap:
        m_Texture: {fileID: 0}
        m_Scale: {x: 1, y: 1}
        m_Offset: {x: 0, y: 0}
    - _MainTex:
        m_Texture: {fileID: 2800000, guid: 79f6d61540123a248b7045d39eca57f6, type: 3}
        m_Scale: {x: 1, y: 1}
        m_Offset: {x: 0, y: 0}
    - _MainTexBottom:
        m_Texture: {fileID: 2800000, guid: 4f03895cd8a1c904caf98fcbe88cbe12, type: 3}
        m_Scale: {x: 1, y: 1}
        m_Offset: {x: 0, y: 0}
    - _MainTexSide:
        m_Texture: {fileID: 2800000, guid: ae8ba95093edc254dab87ba4f2cd4068, type: 3}
        m_Scale: {x: 1, y: 1}
        m_Offset: {x: 0, y: 0}
    - _MetallicGlossMap:
        m_Texture: {fileID: 0}
        m_Scale: {x: 1, y: 1}
        m_Offset: {x: 0, y: 0}
    - _Noise:
        m_Texture: {fileID: 2800000, guid: c4171e9bf8402634f87cfd9986c6a8d6, type: 3}
        m_Scale: {x: 1, y: 1}
        m_Offset: {x: 0, y: 0}
    - _Normal:
        m_Texture: {fileID: 2800000, guid: 09c35089f3c6874419df7750cac75f75, type: 3}
        m_Scale: {x: 1, y: 1}
        m_Offset: {x: 0, y: 0}
    - _NormalT:
        m_Texture: {fileID: 2800000, guid: af14255901ef8944ca18e4e11a28239a, type: 3}
        m_Scale: {x: 1, y: 1}
        m_Offset: {x: 0, y: 0}
    - _OcclusionMap:
        m_Texture: {fileID: 0}
        m_Scale: {x: 1, y: 1}
        m_Offset: {x: 0, y: 0}
    - _ParallaxMap:
        m_Texture: {fileID: 0}
        m_Scale: {x: 1, y: 1}
        m_Offset: {x: 0, y: 0}
    - _Ramp:
        m_Texture: {fileID: 2800000, guid: 7164ef8dffe0d48478896bfed874c377, type: 3}
        m_Scale: {x: 1, y: 1}
        m_Offset: {x: 0, y: 0}
    m_Ints: []
    m_Floats:
    - _BumpScale: 1
    - _Cutoff: 0.5
    - _DetailNormalMapScale: 1
    - _DstBlend: 0
    - _Edge: -0.02
    - _Edge2: 0.26
    - _Edge3: 1.42
    - _Edge4: 2
    - _EdgeWidth: 0
    - _Extra: 0
    - _GlossMapScale: 1
    - _Glossiness: 0.5
    - _GlossyReflections: 1
    - _Merge: 0
    - _MergeW: 0.34
    - _MergeWidth: 0.21
    - _MergeY: -0.61
    - _Metallic: 0
    - _Mode: 0
    - _NoiseScale: 0.67
    - _OcclusionStrength: 1
    - _Offset: 0.99
    - _Parallax: 0.02
    - _RimPower: 20
    - _Scale: 0.14
    - _SideScale: 0.23
    - _SmoothnessTextureChannel: 0
    - _SpecularHighlights: 1
    - _SrcBlend: 1
    - _Test: 0
    - _TopSpread: 0.5
    - _UVSec: 0
    - _ZWrite: 1
    m_Colors:
    - _Color: {r: 1, g: 1, b: 1, a: 1}
    - _Color2: {r: 0.73671407, g: 1, b: 0.13235295, a: 1}
    - _EdgeColor: {r: 0.26969057, g: 0.49264705, b: 0.07607052, a: 1}
    - _EmissionColor: {r: 0, g: 0, b: 0, a: 1}
    - _RimColor: {r: 0.056370515, g: 0.2924528, b: 0, a: 0.709}
    - _RimColor2: {r: 0.08823532, g: 0.0012975795, b: 0.0012975795, a: 1}
    - _TopColor: {r: 0.75, g: 0, b: 0, a: 1}
  m_BuildTextureStacks: []
